%YAML 1.1
%TAG !u! tag:unity3d.com,2011:
--- !u!114 &11400000
MonoBehaviour:
  m_ObjectHideFlags: 0
  m_PrefabParentObject: {fileID: 0}
  m_PrefabInternal: {fileID: 0}
  m_GameObject: {fileID: 0}
  m_Enabled: 1
  m_EditorHideFlags: 0
  m_Script: {fileID: 0}
  m_Name: PersistentData 1
  m_EditorClassIdentifier: 
  _eventLogFilterEventActions: 00000000000000000000000000000000000000000000000000000000000000000000000000000000000000000000
  _displayEventMonitorSceneInfo: 1
  _displayAudioClipWaveform: 1
  _playmodePersistance: 0
  _audioAssetImporter: 0
  _maxRandomization3DDistance: 1000
  _enableHiearchyIcons: 1
  _reaperPath: C:/Program Files/REAPER (x64)/reaper.exe
  _eventLogColor: {r: 0, g: 1, b: 0, a: 1}
  _eventMonitorPersistenceTime: 2
  _logHistorySize: 20
  _resetEventLogOnPlayModeChange: 0
