%YAML 1.1
%TAG !u! tag:unity3d.com,2011:
--- !u!114 &11400000
MonoBehaviour:
  m_ObjectHideFlags: 0
  m_PrefabParentObject: {fileID: 0}
  m_PrefabInternal: {fileID: 0}
  m_GameObject: {fileID: 0}
  m_Enabled: 1
  m_EditorHideFlags: 0
  m_Script: {fileID: 11500000, guid: 3b1ff7cc653d2ae4190d0a37bbf37fb9, type: 3}
  m_Name: PulseWave0_Automation Data
  m_EditorClassIdentifier: 
  instrumentSet: 8-Bit Frantic Battle
  timestamps:
  - 0.0000001937151
  - 1.0000002
  - 2.0000002
  nodeOrder: 000000000100000002000000
  audioFileName: 8-Bit Frantic Battle/FranticBattle_Pulse_12_Left.ogg
  position:
  - {x: -2.2062075, y: 1.0637301, z: 1.6222887}
  - {x: -2.2903912, y: 0.3655554, z: 1.8011956}
  - {x: -2.133055, y: 0.30495834, z: 1.965491}
  loopType: 0
