%YAML 1.1
%TAG !u! tag:unity3d.com,2011:
--- !u!114 &11400000
MonoBehaviour:
  m_ObjectHideFlags: 0
  m_PrefabParentObject: {fileID: 0}
  m_PrefabInternal: {fileID: 0}
  m_GameObject: {fileID: 0}
  m_Enabled: 1
  m_EditorHideFlags: 0
  m_Script: {fileID: 11500000, guid: 3b1ff7cc653d2ae4190d0a37bbf37fb9, type: 3}
  m_Name: PulseWave3_Automation Data
  m_EditorClassIdentifier: 
  instrumentSet: 8-Bit Frantic Battle
  timestamps:
  - 0.0000001937151
  - 1.0000002
  - 2.0000002
  - 3.0000002
  - 4.0000005
  - 5.0000005
  - 6.0000005
  nodeOrder: 00000000010000000200000003000000040000000500000006000000
  audioFileName: 8-Bit Frantic Battle/FranticBattle_Pulse_50.ogg
  position:
  - {x: 1.5911673, y: 1.7925652, z: 2.107635}
  - {x: 0.87286115, y: 1.3652104, z: 2.5771608}
  - {x: 0.60772634, y: 1.9410001, z: 2.2714586}
  - {x: 1.4092221, y: 2.3240304, z: 1.7382789}
  - {x: 2.78941, y: 1.2659882, z: 1.6364233}
  - {x: 2.5103106, y: 0.86766326, z: 2.0737708}
  - {x: 2.0204084, y: 0.9365717, z: 2.3597267}
  loopType: 0
