%YAML 1.1
%TAG !u! tag:unity3d.com,2011:
--- !u!114 &11400000
MonoBehaviour:
  m_ObjectHideFlags: 0
  m_PrefabParentObject: {fileID: 0}
  m_PrefabInternal: {fileID: 0}
  m_GameObject: {fileID: 0}
  m_Enabled: 1
  m_EditorHideFlags: 0
  m_Script: {fileID: 11500000, guid: 3b1ff7cc653d2ae4190d0a37bbf37fb9, type: 3}
  m_Name: TriangleWave4_Automation Data
  m_EditorClassIdentifier: 
  instrumentSet: 8-Bit Frantic Battle
  timestamps:
  - 0.0000001937151
  - 1.0000002
  - 2.0000002
  - 3.0000002
  nodeOrder: 00000000010000000200000003000000
  audioFileName: 8-Bit Frantic Battle/FranticBattle_Triangle.ogg
  position:
  - {x: 1.4793171, y: -0.3270023, z: 2.9178386}
  - {x: -0.16200042, y: -0.89986223, z: 3.018537}
  - {x: 0.0916934, y: -0.33290994, z: 3.092718}
  - {x: -0.4958396, y: 0.09919834, z: 3.020129}
  loopType: 0
