%YAML 1.1
%TAG !u! tag:unity3d.com,2011:
--- !u!114 &11400000
MonoBehaviour:
  m_ObjectHideFlags: 0
  m_PrefabParentObject: {fileID: 0}
  m_PrefabInternal: {fileID: 0}
  m_GameObject: {fileID: 0}
  m_Enabled: 1
  m_EditorHideFlags: 0
  m_Script: {fileID: 11500000, guid: 78e3d6053b54646a8a586f9657837f4b, type: 3}
  m_Name: 16-Bit Difficult Battle
  m_EditorClassIdentifier: 
  instrument: 010000000d0000000e00000012000000070000000500000022000000000000000000000002000000030000001100000006000000090000000f000000
  position: []
  audioEventName:
  - Viola12
  - Timpani9
  - Cymbals2
  - BassDrum8
  - Trombone10
  - FrenchHorn6
  - TriangleWave4
  - Violin13
  - Violin14
  - Cello1
  - Bass0
  - Snare8
  - Trumpet11
  - Flute5
  - Marimba7
  audioFileName:
  - 16-Bit Difficult Battle/DifficultBattle_Violas.ogg
  - 16-Bit Difficult Battle/DifficultBattle_Timpani.ogg
  - 16-Bit Difficult Battle/DifficultBattle_Cymbals.ogg
  - 16-Bit Difficult Battle/DifficultBattle_Drumkit.ogg
  - 16-Bit Difficult Battle/DifficultBattle_Trombone.ogg
  - 16-Bit Difficult Battle/DifficultBattle_FrenchHorn.ogg
  - 16-Bit Difficult Battle/DifficultBattle_ElectricBass.ogg
  - 16-Bit Difficult Battle/DifficultBattle_ViolinsI.ogg
  - 16-Bit Difficult Battle/DifficultBattle_ViolinsII.ogg
  - 16-Bit Difficult Battle/DifficultBattle_Cello.ogg
  - 16-Bit Difficult Battle/DifficultBattle_Bass.ogg
  - 16-Bit Difficult Battle/DifficultBattle_Snares.ogg
  - 16-Bit Difficult Battle/DifficultBattle_Trumpet.ogg
  - 16-Bit Difficult Battle/DifficultBattle_Flute.ogg
  - 16-Bit Difficult Battle/DifficultBattle_Marimba.ogg
  instrumentColor: []
  audioDelay:
  - 0
  - 0
  - 0
  - 0
  - 0
  - 0
  - 0
  - 0
  - 0
  - 0
  - 0
  - 0
  - 0
  - 0
  - 0
  is3D: 010000000100000001000000010000000100000001000000010000000100000001000000010000000100000001000000010000000100000001000000
