%YAML 1.1
%TAG !u! tag:unity3d.com,2011:
--- !u!114 &11400000
MonoBehaviour:
  m_ObjectHideFlags: 0
  m_PrefabParentObject: {fileID: 0}
  m_PrefabInternal: {fileID: 0}
  m_GameObject: {fileID: 0}
  m_Enabled: 1
  m_EditorHideFlags: 0
  m_Script: {fileID: 11500000, guid: 78e3d6053b54646a8a586f9657837f4b, type: 3}
  m_Name: Blue Agave
  m_EditorClassIdentifier: 
  instrument: 2e0000002e0000002d0000002d0000002f0000002f0000002f0000002e0000002e000000
  position: []
  audioEventName:
  - CircleShape1
  - CircleShape0
  - TriangleShape2
  - TriangleShape3
  - SquareShape8
  - SquareShape7
  - SquareShape6
  - CircleShape5
  - CircleShape4
  audioFileName:
  - Blue Agave/BlueAgave_Ambiences_R.ogg
  - Blue Agave/BlueAgave_Ambiences_L.ogg
  - Blue Agave/BlueAgave_Drums_L.ogg
  - Blue Agave/BlueAgave_Drums_R.ogg
  - Blue Agave/BlueAgave_Vox_R.ogg
  - Blue Agave/BlueAgave_Vox_L.ogg
  - Blue Agave/BlueAgave_Sub.ogg
  - Blue Agave/BlueAgave_Pads_R.ogg
  - Blue Agave/BlueAgave_Pads_L.ogg
  instrumentColor: []
  audioDelay:
  - 0
  - 0
  - 0
  - 0
  - 0
  - 0
  - 0
  - 0
  - 0
  is3D: 010000000100000001000000010000000100000001000000010000000100000001000000
