%YAML 1.1
%TAG !u! tag:unity3d.com,2011:
--- !u!114 &11400000
MonoBehaviour:
  m_ObjectHideFlags: 0
  m_PrefabParentObject: {fileID: 0}
  m_PrefabInternal: {fileID: 0}
  m_GameObject: {fileID: 0}
  m_Enabled: 1
  m_EditorHideFlags: 0
  m_Script: {fileID: 11500000, guid: 78e3d6053b54646a8a586f9657837f4b, type: 3}
  m_Name: Bohemian Rhapsody Stereo
  m_EditorClassIdentifier: 
  instrument: 1700000017000000000000000f0000000100000001000000010000000100000001000000010000000100000003000000120000001700000001000000010000000100000001000000010000000d00000017000000110000000e00000001000000
  position:
  - {x: -0.97204655, y: 1.009546, z: 2.180522}
  - {x: 1.7953751, y: 0.07715273, z: 1.7673844}
  - {x: 0.24152586, y: 0.54676175, z: 1.8013507}
  - {x: 0.7644576, y: -0.030647516, z: 1.9864273}
  - {x: 1.6680472, y: -0.882885, z: 2.3024144}
  - {x: 2.3478546, y: 1.024528, z: 1.2007068}
  - {x: 2.6647172, y: -0.55739164, z: 2.0471106}
  - {x: -1.4148338, y: -0.80568135, z: 3.8780906}
  - {x: -1.7401781, y: 0.28863263, z: 3.0396037}
  - {x: -0.19057861, y: 0.14206195, z: 2.5721486}
  - {x: 0.6123854, y: -1.0873877, z: 3.154868}
  - {x: -1.2525203, y: -0.55510974, z: 2.0482054}
  - {x: -0.041493177, y: -0.6066537, z: 2.7173588}
  - {x: 1.3082376, y: 0.9229436, z: 2.2194889}
  - {x: -0.25704044, y: 1.6138284, z: 1.8273513}
  - {x: 1.5091331, y: 1.5217836, z: 1.3197206}
  - {x: -2.5785215, y: 1.3440969, z: 2.3639162}
  - {x: -2.3683689, y: -0.48420525, z: 1.3403378}
  - {x: -0.8615112, y: -1.2301337, z: 2.9637883}
  - {x: 1.3354132, y: -0.045066595, z: 2.5828197}
  - {x: -1.5327249, y: 0.23279977, z: 1.5497273}
  - {x: -0.8896486, y: 0.45601344, z: 2.5221236}
  - {x: 0.8215864, y: 0.81634426, z: 2.7855787}
  - {x: 3.0365953, y: 0.3638785, z: 1.5958714}
  audioEventName: []
  audioFileName: []
  instrumentColor:
  - {r: 1, g: 1, b: 1, a: 1}
  - {r: 1, g: 1, b: 1, a: 1}
  - {r: 1, g: 1, b: 1, a: 1}
  - {r: 1, g: 1, b: 1, a: 1}
  - {r: 1, g: 1, b: 1, a: 1}
  - {r: 1, g: 1, b: 1, a: 1}
  - {r: 1, g: 1, b: 1, a: 1}
  - {r: 1, g: 1, b: 1, a: 1}
  - {r: 1, g: 1, b: 1, a: 1}
  - {r: 1, g: 1, b: 1, a: 1}
  - {r: 1, g: 1, b: 1, a: 1}
  - {r: 1, g: 1, b: 1, a: 1}
  - {r: 1, g: 1, b: 1, a: 1}
  - {r: 1, g: 1, b: 1, a: 1}
  - {r: 1, g: 1, b: 1, a: 1}
  - {r: 1, g: 1, b: 1, a: 1}
  - {r: 1, g: 1, b: 1, a: 1}
  - {r: 1, g: 1, b: 1, a: 1}
  - {r: 1, g: 1, b: 1, a: 1}
  - {r: 1, g: 1, b: 1, a: 1}
  - {r: 1, g: 1, b: 1, a: 1}
  - {r: 1, g: 1, b: 1, a: 1}
  - {r: 1, g: 1, b: 1, a: 1}
  - {r: 1, g: 1, b: 1, a: 1}
