%YAML 1.1
%TAG !u! tag:unity3d.com,2011:
--- !u!1001 &100100000
Prefab:
  m_ObjectHideFlags: 1
  serializedVersion: 2
  m_Modification:
    m_TransformParent: {fileID: 0}
    m_Modifications: []
    m_RemovedComponents: []
  m_ParentPrefab: {fileID: 0}
  m_RootGameObject: {fileID: 1089219468743992}
  m_IsPrefabParent: 1
--- !u!1 &1089219468743992
GameObject:
  m_ObjectHideFlags: 0
  m_PrefabParentObject: {fileID: 0}
  m_PrefabInternal: {fileID: 100100000}
  serializedVersion: 5
  m_Component:
  - component: {fileID: 4762641801206134}
  - component: {fileID: 114006097130726574}
  - component: {fileID: 114411316122838310}
  - component: {fileID: 114288836381518446}
  m_Layer: 0
  m_Name: WwwAudioComponent
  m_TagString: Untagged
  m_Icon: {fileID: 0}
  m_NavMeshLayer: 0
  m_StaticEditorFlags: 0
  m_IsActive: 1
--- !u!4 &4762641801206134
Transform:
  m_ObjectHideFlags: 1
  m_PrefabParentObject: {fileID: 0}
  m_PrefabInternal: {fileID: 100100000}
  m_GameObject: {fileID: 1089219468743992}
  m_LocalRotation: {x: -0, y: -0, z: -0, w: 1}
  m_LocalPosition: {x: 0, y: 0, z: 0}
  m_LocalScale: {x: 1, y: 1, z: 1}
  m_Children: []
  m_Father: {fileID: 0}
  m_RootOrder: 0
  m_LocalEulerAnglesHint: {x: 0, y: 0, z: 0}
--- !u!114 &114006097130726574
MonoBehaviour:
  m_ObjectHideFlags: 1
  m_PrefabParentObject: {fileID: 0}
  m_PrefabInternal: {fileID: 100100000}
  m_GameObject: {fileID: 1089219468743992}
  m_Enabled: 1
  m_EditorHideFlags: 0
  m_Script: {fileID: 518274145, guid: 4b4e8768ed04d6a4f98af6f4f83be984, type: 3}
  m_Name: 
  m_EditorClassIdentifier: 
  _numVirtualizationEvents: 100
  _maxInstances: 1
  _stealingBehaviour: 0
  _minimumPlaybackInterval: 0
  _overrideParentVolume: 1
  _volume: 1
  _volumeRandomization: 0
  _mute: 0
  _overrideParentPitch: 1
  _pitch: 1
  _pitchRandomization: 0
  _override2DProperties: 0
  _pan2D: 0
  _pan2DRandomization: 0
  _override3DProperties: 1
  _priority: 128
  _panLevel: 1
  _spreadLevel: 0
  _spatialize: 1
  _dopplerLevel: 0
  _maxDistance: 200
  _minDistance: 3
  _rolloffMode: 0
  _customCurvesType: 0
  _customCurvesName: 
  _overrideFadeProperties: 0
  _fadeInTime: 0
  _fadeInCurve: 0.5
  _fadeOutTime: 0
  _fadeOutCurve: 0.5
  _reverbZoneMix: 1
  _overrideBypassProperties: 0
  _bypassEffects: 0
  _bypassListenerEffects: 0
  _bypassReverbZones: 0
  _overrideAudioMixerGroup: 1
  _audioMixerGroup: {fileID: 24300002, guid: 3a64e3042e8de6149893f7dbdc82e639, type: 2}
  _notifyParentComponent: 0
  _audioBusName: None
  _overrideAudioBus: 0
  _overrideMusicTimeSettings: 0
  _musicTimeSettingsIndex: -1
  _musicTempo: -1
  _musicTimeSignatureLower: 0
  _musicTimeSignatureUpper: 0
  _musicTimeResetOnPlay: 0
  _midiProperties:
    _overrideParentNoteTracking: 0
    _noteTracking: 0
    _keyRangeMin: 0
    _keyRangeMax: 127
    _velocityRangeMin: 0
    _velocityRangeMax: 127
    _channelRangeMin: 1
    _channelRangeMax: 16
    _rootNote: -36
    _transpose: 0
    _velocity: 0
  _overrideSpatializeProperty: 1
  _probability: 100
  _multipleInstancesPerGameObject: 0
  _componentVirtualization: 0
  _overrideVolumeThreshold: 0
  _volumeThreshold: 1
  _virtualizationBehavior: 1
  _RTPManager:
    _parameters: []
    _reference: {fileID: 0}
  Guid: 
  _componentHolder: {fileID: 114006097130726574}
  _onEventNotifyEventName: 
  _audioClip: {fileID: 0}
  _audioClipHandle:
    _audioClipPath: 
    _useAudioClipPath: 1
  _dynamicAudioClipLoading: 0
  _dynamicAudioClipUnloadDelay: 0
  _dynamicAsyncAudioClipLoading: 0
  _audioClipAssetPath: 0
  _delay: 0
  _delayInBeats: 0
  _loop: 0
  _ignoreNativeLoop: 0
  _randomizeStart: 0
  _randomizeStartPercentage: 100
  _numLoops: -1
  _loopMarkersLoaded: 0
  _useLoopMarkers: 1
  _startLoopMarkerIndex: 0
  _endLoopMarkerIndex: 1
  _loopRegionIndex: 0
  _randomizeStartLoopMarkerIndex: 0
  _randomizeEndLoopMarkerIndex: 0
  _randomizeRegionIndex: 0
  _dontPlay: 0
  _dontStopOnDestroy: 0
  _ignoreVirtualization: 0
  _randomizePosition: 0
  _randomizeMinPosition: 0
  _randomizeMaxPosition: 10
  _syncWithMusicTime: 0
  _markers: []
  _syncRegionsWithTempo: 0
  _audioClipTempo: 120
  _regions: []
  _fileLocation: 2
  _audioType: 0
  _is3D: 1
  _isStreaming: 1
  _languageSupported: 0
  _loadOnStart: 0
  _ignoreUnloadUnusedAssets: 0
  _audioClipReference: /Space Battle Edit.wav
--- !u!114 &114288836381518446
MonoBehaviour:
  m_ObjectHideFlags: 1
  m_PrefabParentObject: {fileID: 0}
  m_PrefabInternal: {fileID: 100100000}
  m_GameObject: {fileID: 1089219468743992}
  m_Enabled: 1
  m_EditorHideFlags: 0
  m_Script: {fileID: 755878336, guid: 4b4e8768ed04d6a4f98af6f4f83be984, type: 3}
  m_Name: 
  m_EditorClassIdentifier: 
  volumeMeterState:
    mHistoryIndex: 0
    mHistory:
    - mChannels:
      - 0
      - 0
      mRMS: 0
    - mChannels:
      - 0
      - 0
      mRMS: 0
    - mChannels:
      - 0
      - 0
      mRMS: 0
    - mChannels:
      - 0
      - 0
      mRMS: 0
    - mChannels:
      - 0
      - 0
      mRMS: 0
    mPeaks:
      mChannels:
      - 0
      - 0
      mRMS: 0
    mRMS: 0
  _is3D: 1
  _globalParameterName: 
--- !u!114 &114411316122838310
MonoBehaviour:
  m_ObjectHideFlags: 1
  m_PrefabParentObject: {fileID: 0}
  m_PrefabInternal: {fileID: 100100000}
  m_GameObject: {fileID: 1089219468743992}
  m_Enabled: 1
  m_EditorHideFlags: 0
  m_Script: {fileID: 1137554331, guid: 4b4e8768ed04d6a4f98af6f4f83be984, type: 3}
  m_Name: 
  m_EditorClassIdentifier: 
  _eventName: _UnSet_
  _eventID: 2603186
  _overrideEventTriggerAction: 0
  _overrideParameters:
    _overrideIncomingEventAction: 0
    _incomingEventAction: 0
    _overrideEventAction: 0
    _type: 0
    _floatParameter: 1
    _stringParameter: 
    _switchPresetData:
      _sourcePreset: 
      _targetPreset: 
    _dspParameterData:
      _dspType: 0
      _parameter: 
      _value: 0
      _time: 0
      _curve: 0.5
    _transitionToSnapshotData:
      _snapshot: 
      _timeToReach: 0
